{
    "armeabi-v7a": {
        "versionCode": 1048590,
        "simpleVersionCode": 14,
        "versionName": "1.5.1",
        "url": "http://schulhackupdates.cloudserver.click/files/14/schulhack-1-5-1-armeabi-v7a-release.apk"
    },
    "x86": {
        "versionCode": 2097166,
        "simpleVersionCode": 14,
        "versionName": "1.5.1",
        "url": "http://schulhackupdates.cloudserver.click/files/14/schulhack-1-5-1-x86-release.apk"
    },
    "arm64-v8a": {
        "versionCode": 3145742,
        "simpleVersionCode": 14,
        "versionName": "1.5.1",
        "url": "http://schulhackupdates.cloudserver.click/files/14/schulhack-1-5-1-arm64-v8a-release.apk"
    },
    "x86_64": {
        "versionCode": 4194318,
        "simpleVersionCode": 14,
        "versionName": "1.5.1",
        "url": "http://schulhackupdates.cloudserver.click/files/14/schulhack-1-5-1-x86_64-release.apk"
    }
}